Italy Population & Migration Analysis
…
istat %>% count(time_period) %>% print(n = 30)

## # A tibble: 5 × 2
##   time_period     n
##         <int> <int>
## 1        2019   405
## 2        2020   405
## 3        2021   405
## 4        2022   405
## 5        2024   405

istat %>% distinct(territory) %>% print(n = 30)

## # A tibble: 134 × 1
##    territory                             
##    <chr>                                 
##  1 "Italy"                               
##  2 "Nord-ovest"                          
##  3 "Piemonte"                            
##  4 "Torino"                              
##  5 "Vercelli"                            
##  6 "Novara"                              
##  7 "Cuneo"                               
##  8 "Asti"                                
##  9 "Alessandria"                         
## 10 "Biella"                              
## 11 "Verbano-Cusio-Ossola"                
## 12 "'Valle d\"'Aosta / Vallée d\"'Aoste'"
## 13 "Liguria"                             
## 14 "Imperia"                             
## 15 "Savona"                              
## 16 "Genova"                              
## 17 "La Spezia"                           
## 18 "Lombardia"                           
## 19 "Varese"                              
## 20 "Como"                                
## 21 "Sondrio"                             
## 22 "Milano"                              
## 23 "Bergamo"                             
## 24 "Brescia"                             
## 25 "Pavia"                               
## 26 "Cremona"                             
## 27 "Mantova"                             
## 28 "Lecco"                               
## 29 "Lodi"                                
## 30 "Monza e della Brianza"               
## # ℹ 104 more rows
…
